<?xml version="1.0" encoding="utf-8"?>
<!DOCTYPE eagle SYSTEM "eagle.dtd">
<eagle version="7.1.0">
<drawing>
<settings>
<setting alwaysvectorfont="no"/>
<setting verticaltext="up"/>
</settings>
<grid distance="0.1" unitdist="mm" unit="mm" style="lines" multiple="1" display="yes" altdistance="0.025" altunitdist="mm" altunit="mm"/>
<layers>
<layer number="1" name="Top" color="4" fill="1" visible="yes" active="yes"/>
<layer number="2" name="Route2" color="1" fill="3" visible="no" active="yes"/>
<layer number="15" name="Route15" color="4" fill="6" visible="no" active="yes"/>
<layer number="16" name="Bottom" color="1" fill="1" visible="no" active="yes"/>
<layer number="17" name="Pads" color="2" fill="1" visible="yes" active="yes"/>
<layer number="18" name="Vias" color="2" fill="1" visible="yes" active="yes"/>
<layer number="19" name="Unrouted" color="6" fill="1" visible="yes" active="yes"/>
<layer number="20" name="Dimension" color="15" fill="1" visible="yes" active="yes"/>
<layer number="21" name="tPlace" color="16" fill="1" visible="yes" active="yes"/>
<layer number="22" name="bPlace" color="14" fill="1" visible="yes" active="yes"/>
<layer number="23" name="tOrigins" color="15" fill="1" visible="yes" active="yes"/>
<layer number="24" name="bOrigins" color="15" fill="1" visible="yes" active="yes"/>
<layer number="25" name="tNames" color="7" fill="1" visible="yes" active="yes"/>
<layer number="26" name="bNames" color="7" fill="1" visible="yes" active="yes"/>
<layer number="27" name="tValues" color="7" fill="1" visible="yes" active="yes"/>
<layer number="28" name="bValues" color="7" fill="1" visible="yes" active="yes"/>
<layer number="29" name="tStop" color="7" fill="3" visible="no" active="yes"/>
<layer number="30" name="bStop" color="7" fill="6" visible="no" active="yes"/>
<layer number="31" name="tCream" color="7" fill="4" visible="no" active="yes"/>
<layer number="32" name="bCream" color="7" fill="5" visible="no" active="yes"/>
<layer number="39" name="tKeepout" color="4" fill="11" visible="yes" active="yes"/>
<layer number="40" name="bKeepout" color="1" fill="11" visible="no" active="yes"/>
<layer number="41" name="tRestrict" color="4" fill="10" visible="no" active="yes"/>
<layer number="42" name="bRestrict" color="1" fill="10" visible="no" active="yes"/>
<layer number="43" name="vRestrict" color="2" fill="10" visible="no" active="yes"/>
<layer number="44" name="Drills" color="7" fill="1" visible="no" active="yes"/>
<layer number="45" name="Holes" color="7" fill="1" visible="no" active="yes"/>
<layer number="46" name="Milling" color="3" fill="1" visible="no" active="yes"/>
<layer number="51" name="tDocu" color="6" fill="1" visible="yes" active="yes"/>
<layer number="3" name="Route3" color="4" fill="3" visible="no" active="no"/>
<layer number="4" name="Route4" color="1" fill="4" visible="no" active="no"/>
<layer number="5" name="Route5" color="4" fill="4" visible="no" active="no"/>
<layer number="6" name="Route6" color="1" fill="8" visible="no" active="no"/>
<layer number="7" name="Route7" color="4" fill="8" visible="no" active="no"/>
<layer number="8" name="Route8" color="1" fill="2" visible="no" active="no"/>
<layer number="9" name="Route9" color="4" fill="2" visible="no" active="no"/>
<layer number="10" name="Route10" color="1" fill="7" visible="no" active="no"/>
<layer number="11" name="Route11" color="4" fill="7" visible="no" active="no"/>
<layer number="12" name="Route12" color="1" fill="5" visible="no" active="no"/>
<layer number="13" name="Route13" color="4" fill="5" visible="no" active="no"/>
<layer number="14" name="Route14" color="1" fill="6" visible="no" active="no"/>
<layer number="33" name="tFinish" color="6" fill="3" visible="no" active="no"/>
<layer number="34" name="bFinish" color="6" fill="6" visible="no" active="no"/>
<layer number="35" name="tGlue" color="7" fill="4" visible="no" active="no"/>
<layer number="36" name="bGlue" color="7" fill="5" visible="no" active="no"/>
<layer number="37" name="tTest" color="7" fill="1" visible="no" active="no"/>
<layer number="38" name="bTest" color="7" fill="1" visible="no" active="no"/>
<layer number="47" name="Measures" color="7" fill="1" visible="no" active="no"/>
<layer number="48" name="Document" color="7" fill="1" visible="no" active="no"/>
<layer number="49" name="Reference" color="7" fill="1" visible="no" active="no"/>
<layer number="50" name="dxf" color="7" fill="1" visible="no" active="no"/>
<layer number="52" name="bDocu" color="7" fill="1" visible="no" active="no"/>
<layer number="53" name="tGND_GNDA" color="7" fill="9" visible="no" active="no"/>
<layer number="54" name="bGND_GNDA" color="1" fill="9" visible="no" active="no"/>
<layer number="56" name="wert" color="7" fill="1" visible="no" active="no"/>
<layer number="57" name="tCAD" color="7" fill="1" visible="no" active="no"/>
<layer number="91" name="Nets" color="2" fill="1" visible="no" active="no"/>
<layer number="92" name="Busses" color="1" fill="1" visible="no" active="no"/>
<layer number="93" name="Pins" color="2" fill="1" visible="no" active="no"/>
<layer number="94" name="Symbols" color="4" fill="1" visible="no" active="no"/>
<layer number="95" name="Names" color="7" fill="1" visible="no" active="no"/>
<layer number="96" name="Values" color="7" fill="1" visible="no" active="no"/>
<layer number="97" name="Info" color="7" fill="1" visible="no" active="no"/>
<layer number="98" name="Guide" color="6" fill="1" visible="no" active="no"/>
<layer number="99" name="SpiceOrder" color="7" fill="1" visible="no" active="no"/>
<layer number="100" name="Muster" color="7" fill="1" visible="no" active="no"/>
<layer number="101" name="Patch_Top" color="12" fill="4" visible="no" active="no"/>
<layer number="102" name="Vscore" color="7" fill="1" visible="no" active="no"/>
<layer number="103" name="tMap" color="7" fill="1" visible="no" active="no"/>
<layer number="104" name="Name" color="16" fill="1" visible="no" active="no"/>
<layer number="105" name="tPlate" color="7" fill="1" visible="no" active="no"/>
<layer number="106" name="bPlate" color="7" fill="1" visible="no" active="no"/>
<layer number="107" name="Crop" color="7" fill="1" visible="no" active="no"/>
<layer number="108" name="tplace-old" color="10" fill="1" visible="no" active="no"/>
<layer number="109" name="ref-old" color="11" fill="1" visible="no" active="no"/>
<layer number="110" name="fp0" color="7" fill="1" visible="no" active="no"/>
<layer number="111" name="LPC17xx" color="7" fill="1" visible="no" active="no"/>
<layer number="112" name="tSilk" color="7" fill="1" visible="no" active="no"/>
<layer number="113" name="IDFDebug" color="4" fill="1" visible="no" active="no"/>
<layer number="116" name="Patch_BOT" color="9" fill="4" visible="no" active="no"/>
<layer number="121" name="_tsilk" color="7" fill="1" visible="no" active="no"/>
<layer number="122" name="_bsilk" color="7" fill="1" visible="no" active="no"/>
<layer number="123" name="tTestmark" color="7" fill="1" visible="no" active="no"/>
<layer number="124" name="bTestmark" color="7" fill="1" visible="no" active="no"/>
<layer number="125" name="_tNames" color="7" fill="1" visible="no" active="no"/>
<layer number="126" name="_bNames" color="7" fill="1" visible="no" active="no"/>
<layer number="127" name="_tValues" color="7" fill="1" visible="no" active="no"/>
<layer number="128" name="_bValues" color="7" fill="1" visible="no" active="no"/>
<layer number="131" name="tAdjust" color="7" fill="1" visible="no" active="no"/>
<layer number="132" name="bAdjust" color="7" fill="1" visible="no" active="no"/>
<layer number="144" name="Drill_legend" color="7" fill="1" visible="no" active="no"/>
<layer number="150" name="Notes" color="7" fill="1" visible="no" active="no"/>
<layer number="151" name="HeatSink" color="7" fill="1" visible="no" active="no"/>
<layer number="152" name="_bDocu" color="7" fill="1" visible="no" active="no"/>
<layer number="153" name="FabDoc1" color="7" fill="1" visible="no" active="no"/>
<layer number="154" name="FabDoc2" color="7" fill="1" visible="no" active="no"/>
<layer number="155" name="FabDoc3" color="7" fill="1" visible="no" active="no"/>
<layer number="199" name="Contour" color="7" fill="1" visible="no" active="no"/>
<layer number="200" name="200bmp" color="1" fill="10" visible="no" active="no"/>
<layer number="201" name="201bmp" color="2" fill="10" visible="no" active="no"/>
<layer number="202" name="202bmp" color="3" fill="10" visible="no" active="no"/>
<layer number="203" name="203bmp" color="4" fill="10" visible="no" active="no"/>
<layer number="204" name="204bmp" color="5" fill="10" visible="no" active="no"/>
<layer number="205" name="205bmp" color="6" fill="10" visible="no" active="no"/>
<layer number="206" name="206bmp" color="7" fill="10" visible="no" active="no"/>
<layer number="207" name="207bmp" color="8" fill="10" visible="no" active="no"/>
<layer number="208" name="208bmp" color="9" fill="10" visible="no" active="no"/>
<layer number="209" name="209bmp" color="7" fill="1" visible="no" active="no"/>
<layer number="210" name="210bmp" color="7" fill="1" visible="no" active="no"/>
<layer number="211" name="211bmp" color="7" fill="1" visible="no" active="no"/>
<layer number="212" name="212bmp" color="7" fill="1" visible="no" active="no"/>
<layer number="213" name="213bmp" color="7" fill="1" visible="no" active="no"/>
<layer number="214" name="214bmp" color="7" fill="1" visible="no" active="no"/>
<layer number="215" name="215bmp" color="7" fill="1" visible="no" active="no"/>
<layer number="216" name="216bmp" color="7" fill="1" visible="no" active="no"/>
<layer number="217" name="217bmp" color="18" fill="1" visible="no" active="no"/>
<layer number="218" name="218bmp" color="19" fill="1" visible="no" active="no"/>
<layer number="219" name="219bmp" color="20" fill="1" visible="no" active="no"/>
<layer number="220" name="220bmp" color="21" fill="1" visible="no" active="no"/>
<layer number="221" name="221bmp" color="22" fill="1" visible="no" active="no"/>
<layer number="222" name="222bmp" color="23" fill="1" visible="no" active="no"/>
<layer number="223" name="223bmp" color="24" fill="1" visible="no" active="no"/>
<layer number="224" name="224bmp" color="25" fill="1" visible="no" active="no"/>
<layer number="248" name="Housing" color="7" fill="1" visible="no" active="no"/>
<layer number="249" name="Edge" color="7" fill="1" visible="no" active="no"/>
<layer number="250" name="Descript" color="3" fill="1" visible="no" active="no"/>
<layer number="251" name="SMDround" color="12" fill="11" visible="no" active="no"/>
<layer number="254" name="cooling" color="7" fill="1" visible="no" active="no"/>
</layers>
<board>
<plain>
<wire x1="2.60809375" y1="0.660025" x2="43.50209375" y2="0.660025" width="0.1524" layer="20"/>
<wire x1="45.28009375" y1="2.438025" x2="45.28009375" y2="29.362025" width="0.1524" layer="20"/>
<wire x1="43.50209375" y1="31.140025" x2="2.60809375" y2="31.140025" width="0.1524" layer="20"/>
<hole x="43.3578" y="2.6162" drill="2"/>
<hole x="43.3578" y="29.2862" drill="2"/>
<hole x="2.7178" y="29.2862" drill="2"/>
<hole x="2.7178" y="2.6162" drill="2"/>
<wire x1="43.50209375" y1="0.660025" x2="45.28009375" y2="2.438025" width="0.1524" layer="20" curve="90"/>
<wire x1="45.28009375" y1="29.362025" x2="43.50209375" y2="31.140025" width="0.1524" layer="20" curve="90"/>
<wire x1="2.60809375" y1="31.140025" x2="0.83009375" y2="29.362025" width="0.1524" layer="20" curve="90"/>
<wire x1="0.83009375" y1="2.438025" x2="2.60809375" y2="0.660025" width="0.1524" layer="20" curve="90"/>
<rectangle x1="5.7658" y1="-4.2418" x2="14.1478" y2="14.0462" layer="41" rot="R90"/>
<rectangle x1="5.7658" y1="-4.2418" x2="14.1478" y2="14.0462" layer="42" rot="R90"/>
<wire x1="0.83009375" y1="2.412625" x2="0.83009375" y2="29.336625" width="0.1524" layer="20"/>
</plain>
<libraries>
<library name="SparkFun-Aesthetics">
<description>&lt;h3&gt;SparkFun Electronics' preferred foot prints&lt;/h3&gt;
In this library you'll find non-functional items- supply symbols, logos, notations, frame blocks, etc.&lt;br&gt;&lt;br&gt;
We've spent an enormous amount of time creating and checking these footprints and parts, but it is the end user's responsibility to ensure correctness and suitablity for a given componet or application. If you enjoy using this library, please buy one of our products at www.sparkfun.com.
&lt;br&gt;&lt;br&gt;
&lt;b&gt;Licensing:&lt;/b&gt; Creative Commons ShareAlike 4.0 International - https://creativecommons.org/licenses/by-sa/4.0/ 
&lt;br&gt;&lt;br&gt;
You are welcome to use this library for commercial purposes. For attribution, we ask that when you begin to sell your device using our footprint, you email us with a link to the product being sold. We want bragging rights that we helped (in a very small part) to create your 8th world wonder. We would like the opportunity to feature your device on our homepage.</description>
<packages>
<package name="OSHW-LOGO-S">
<polygon width="0.15" layer="21">
<vertex x="0.3947" y="-0.9528" curve="9.498218"/>
<vertex x="0.5465" y="-0.8746"/>
<vertex x="0.9235" y="-1.182"/>
<vertex x="1.182" y="-0.9235"/>
<vertex x="0.8746" y="-0.5465" curve="19.000773"/>
<vertex x="1.0049" y="-0.232"/>
<vertex x="1.4888" y="-0.1828"/>
<vertex x="1.4888" y="0.1828"/>
<vertex x="1.0049" y="0.232" curve="19.000773"/>
<vertex x="0.8746" y="0.5465"/>
<vertex x="1.182" y="0.9235"/>
<vertex x="0.9235" y="1.182"/>
<vertex x="0.5465" y="0.8746" curve="19.000773"/>
<vertex x="0.232" y="1.0049"/>
<vertex x="0.1828" y="1.4888"/>
<vertex x="-0.1828" y="1.4888"/>
<vertex x="-0.232" y="1.0049" curve="19.000773"/>
<vertex x="-0.5465" y="0.8746"/>
<vertex x="-0.9235" y="1.182"/>
<vertex x="-1.182" y="0.9235"/>
<vertex x="-0.8746" y="0.5465" curve="19.000773"/>
<vertex x="-1.0049" y="0.232"/>
<vertex x="-1.4888" y="0.1828"/>
<vertex x="-1.4888" y="-0.1828"/>
<vertex x="-1.0049" y="-0.232" curve="19.000773"/>
<vertex x="-0.8746" y="-0.5465"/>
<vertex x="-1.182" y="-0.9235"/>
<vertex x="-0.9235" y="-1.182"/>
<vertex x="-0.5465" y="-0.8746" curve="9.498218"/>
<vertex x="-0.3947" y="-0.9528"/>
<vertex x="-0.1794" y="-0.4331" curve="-67.514699"/>
<vertex x="-0.4688" y="0" curve="-247.473915"/>
<vertex x="0.1794" y="-0.4331"/>
</polygon>
</package>
<package name="FIDUCIAL-1X2">
<smd name="1" x="0" y="0" dx="1" dy="1" layer="1" roundness="100" cream="no"/>
</package>
</packages>
</library>
<library name="Edison">
<packages>
<package name="DF40C-70DP-0.4(51)">
<circle x="7.3" y="1" radius="0.1" width="0.3048" layer="21"/>
<wire x1="-8.4" y1="1.44" x2="8.4" y2="1.44" width="0.2032" layer="21"/>
<wire x1="8.4" y1="1.44" x2="8.4" y2="-1.44" width="0.2032" layer="21"/>
<wire x1="8.4" y1="-1.44" x2="-8.4" y2="-1.44" width="0.2032" layer="21"/>
<wire x1="-8.4" y1="-1.44" x2="-8.4" y2="1.44" width="0.2032" layer="21"/>
<smd name="1" x="6.8" y="1.32" dx="0.2" dy="1.14" layer="16"/>
<smd name="2" x="6.8" y="-1.32" dx="0.2" dy="1.14" layer="16"/>
<smd name="3" x="6.4" y="1.32" dx="0.2" dy="1.14" layer="16"/>
<smd name="4" x="6.4" y="-1.32" dx="0.2" dy="1.14" layer="16"/>
<smd name="5" x="6" y="1.32" dx="0.2" dy="1.14" layer="16"/>
<smd name="6" x="6" y="-1.32" dx="0.2" dy="1.14" layer="16"/>
<smd name="7" x="5.6" y="1.32" dx="0.2" dy="1.14" layer="16"/>
<smd name="8" x="5.6" y="-1.32" dx="0.2" dy="1.14" layer="16"/>
<smd name="9" x="5.2" y="1.32" dx="0.2" dy="1.14" layer="16"/>
<smd name="10" x="5.2" y="-1.32" dx="0.2" dy="1.14" layer="16"/>
<smd name="11" x="4.8" y="1.32" dx="0.2" dy="1.14" layer="16"/>
<smd name="12" x="4.8" y="-1.32" dx="0.2" dy="1.14" layer="16"/>
<smd name="13" x="4.4" y="1.32" dx="0.2" dy="1.14" layer="16"/>
<smd name="14" x="4.4" y="-1.32" dx="0.2" dy="1.14" layer="16"/>
<smd name="15" x="4" y="1.32" dx="0.2" dy="1.14" layer="16"/>
<smd name="16" x="4" y="-1.32" dx="0.2" dy="1.14" layer="16"/>
<smd name="17" x="3.6" y="1.32" dx="0.2" dy="1.14" layer="16"/>
<smd name="18" x="3.6" y="-1.32" dx="0.2" dy="1.14" layer="16"/>
<smd name="19" x="3.2" y="1.32" dx="0.2" dy="1.14" layer="16"/>
<smd name="20" x="3.2" y="-1.32" dx="0.2" dy="1.14" layer="16"/>
<smd name="21" x="2.8" y="1.32" dx="0.2" dy="1.14" layer="16"/>
<smd name="22" x="2.8" y="-1.32" dx="0.2" dy="1.14" layer="16"/>
<smd name="23" x="2.4" y="1.32" dx="0.2" dy="1.14" layer="16"/>
<smd name="24" x="2.4" y="-1.32" dx="0.2" dy="1.14" layer="16"/>
<smd name="25" x="2" y="1.32" dx="0.2" dy="1.14" layer="16"/>
<smd name="26" x="2" y="-1.32" dx="0.2" dy="1.14" layer="16"/>
<smd name="27" x="1.6" y="1.32" dx="0.2" dy="1.14" layer="16"/>
<smd name="28" x="1.6" y="-1.32" dx="0.2" dy="1.14" layer="16"/>
<smd name="29" x="1.2" y="1.32" dx="0.2" dy="1.14" layer="16"/>
<smd name="30" x="1.2" y="-1.32" dx="0.2" dy="1.14" layer="16"/>
<smd name="31" x="0.8" y="1.32" dx="0.2" dy="1.14" layer="16"/>
<smd name="32" x="0.8" y="-1.32" dx="0.2" dy="1.14" layer="16"/>
<smd name="33" x="0.4" y="1.32" dx="0.2" dy="1.14" layer="16"/>
<smd name="34" x="0.4" y="-1.32" dx="0.2" dy="1.14" layer="16"/>
<smd name="35" x="0" y="1.32" dx="0.2" dy="1.14" layer="16"/>
<smd name="36" x="0" y="-1.32" dx="0.2" dy="1.14" layer="16"/>
<smd name="37" x="-0.4" y="1.32" dx="0.2" dy="1.14" layer="16"/>
<smd name="38" x="-0.4" y="-1.32" dx="0.2" dy="1.14" layer="16"/>
<smd name="39" x="-0.8" y="1.32" dx="0.2" dy="1.14" layer="16"/>
<smd name="40" x="-0.8" y="-1.32" dx="0.2" dy="1.14" layer="16"/>
<smd name="41" x="-1.2" y="1.32" dx="0.2" dy="1.14" layer="16"/>
<smd name="42" x="-1.2" y="-1.32" dx="0.2" dy="1.14" layer="16"/>
<smd name="43" x="-1.6" y="1.32" dx="0.2" dy="1.14" layer="16"/>
<smd name="44" x="-1.6" y="-1.32" dx="0.2" dy="1.14" layer="16"/>
<smd name="45" x="-2" y="1.32" dx="0.2" dy="1.14" layer="16"/>
<smd name="46" x="-2" y="-1.32" dx="0.2" dy="1.14" layer="16"/>
<smd name="47" x="-2.4" y="1.32" dx="0.2" dy="1.14" layer="16"/>
<smd name="48" x="-2.4" y="-1.32" dx="0.2" dy="1.14" layer="16"/>
<smd name="49" x="-2.8" y="1.32" dx="0.2" dy="1.14" layer="16"/>
<smd name="50" x="-2.8" y="-1.32" dx="0.2" dy="1.14" layer="16"/>
<smd name="51" x="-3.2" y="1.32" dx="0.2" dy="1.14" layer="16"/>
<smd name="52" x="-3.2" y="-1.32" dx="0.2" dy="1.14" layer="16"/>
<smd name="53" x="-3.6" y="1.32" dx="0.2" dy="1.14" layer="16"/>
<smd name="54" x="-3.6" y="-1.32" dx="0.2" dy="1.14" layer="16"/>
<smd name="55" x="-4" y="1.32" dx="0.2" dy="1.14" layer="16"/>
<smd name="56" x="-4" y="-1.32" dx="0.2" dy="1.14" layer="16"/>
<smd name="57" x="-4.4" y="1.32" dx="0.2" dy="1.14" layer="16"/>
<smd name="58" x="-4.4" y="-1.32" dx="0.2" dy="1.14" layer="16"/>
<smd name="59" x="-4.8" y="1.32" dx="0.2" dy="1.14" layer="16"/>
<smd name="60" x="-4.8" y="-1.32" dx="0.2" dy="1.14" layer="16"/>
<smd name="61" x="-5.2" y="1.32" dx="0.2" dy="1.14" layer="16"/>
<smd name="62" x="-5.2" y="-1.32" dx="0.2" dy="1.14" layer="16"/>
<smd name="63" x="-5.6" y="1.32" dx="0.2" dy="1.14" layer="16"/>
<smd name="64" x="-5.6" y="-1.32" dx="0.2" dy="1.14" layer="16"/>
<smd name="65" x="-6" y="1.32" dx="0.2" dy="1.14" layer="16"/>
<smd name="66" x="-6" y="-1.32" dx="0.2" dy="1.14" layer="16"/>
<smd name="67" x="-6.4" y="1.32" dx="0.2" dy="1.14" layer="16"/>
<smd name="68" x="-6.4" y="-1.32" dx="0.2" dy="1.14" layer="16"/>
<smd name="69" x="-6.8" y="1.32" dx="0.2" dy="1.14" layer="16"/>
<smd name="70" x="-6.8" y="-1.32" dx="0.2" dy="1.14" layer="16"/>
</package>
<package name="EDISON_DAUGHTER">
<smd name="69" x="1.98" y="5.57" dx="0.2" dy="1.14" layer="1" rot="R90"/>
<smd name="70" x="4.62" y="5.57" dx="0.2" dy="1.14" layer="1" rot="R90"/>
<smd name="67" x="1.98" y="5.97" dx="0.2" dy="1.14" layer="1" rot="R90"/>
<smd name="68" x="4.62" y="5.97" dx="0.2" dy="1.14" layer="1" rot="R90"/>
<smd name="65" x="1.98" y="6.37" dx="0.2" dy="1.14" layer="1" rot="R90"/>
<smd name="66" x="4.62" y="6.37" dx="0.2" dy="1.14" layer="1" rot="R90"/>
<smd name="63" x="1.98" y="6.77" dx="0.2" dy="1.14" layer="1" rot="R90"/>
<smd name="64" x="4.62" y="6.77" dx="0.2" dy="1.14" layer="1" rot="R90"/>
<smd name="61" x="1.98" y="7.17" dx="0.2" dy="1.14" layer="1" rot="R90"/>
<smd name="62" x="4.62" y="7.17" dx="0.2" dy="1.14" layer="1" rot="R90"/>
<smd name="59" x="1.98" y="7.57" dx="0.2" dy="1.14" layer="1" rot="R90"/>
<smd name="60" x="4.62" y="7.57" dx="0.2" dy="1.14" layer="1" rot="R90"/>
<smd name="57" x="1.98" y="7.97" dx="0.2" dy="1.14" layer="1" rot="R90"/>
<smd name="58" x="4.62" y="7.97" dx="0.2" dy="1.14" layer="1" rot="R90"/>
<smd name="55" x="1.98" y="8.37" dx="0.2" dy="1.14" layer="1" rot="R90"/>
<smd name="56" x="4.62" y="8.37" dx="0.2" dy="1.14" layer="1" rot="R90"/>
<smd name="53" x="1.98" y="8.77" dx="0.2" dy="1.14" layer="1" rot="R90"/>
<smd name="54" x="4.62" y="8.77" dx="0.2" dy="1.14" layer="1" rot="R90"/>
<smd name="51" x="1.98" y="9.17" dx="0.2" dy="1.14" layer="1" rot="R90"/>
<smd name="52" x="4.62" y="9.17" dx="0.2" dy="1.14" layer="1" rot="R90"/>
<smd name="49" x="1.98" y="9.57" dx="0.2" dy="1.14" layer="1" rot="R90"/>
<smd name="50" x="4.62" y="9.57" dx="0.2" dy="1.14" layer="1" rot="R90"/>
<smd name="47" x="1.98" y="9.97" dx="0.2" dy="1.14" layer="1" rot="R90"/>
<smd name="48" x="4.62" y="9.97" dx="0.2" dy="1.14" layer="1" rot="R90"/>
<smd name="45" x="1.98" y="10.37" dx="0.2" dy="1.14" layer="1" rot="R90"/>
<smd name="46" x="4.62" y="10.37" dx="0.2" dy="1.14" layer="1" rot="R90"/>
<smd name="43" x="1.98" y="10.77" dx="0.2" dy="1.14" layer="1" rot="R90"/>
<smd name="44" x="4.62" y="10.77" dx="0.2" dy="1.14" layer="1" rot="R90"/>
<smd name="41" x="1.98" y="11.17" dx="0.2" dy="1.14" layer="1" rot="R90"/>
<smd name="42" x="4.62" y="11.17" dx="0.2" dy="1.14" layer="1" rot="R90"/>
<smd name="39" x="1.98" y="11.57" dx="0.2" dy="1.14" layer="1" rot="R90"/>
<smd name="40" x="4.62" y="11.57" dx="0.2" dy="1.14" layer="1" rot="R90"/>
<smd name="37" x="1.98" y="11.97" dx="0.2" dy="1.14" layer="1" rot="R90"/>
<smd name="38" x="4.62" y="11.97" dx="0.2" dy="1.14" layer="1" rot="R90"/>
<smd name="35" x="1.98" y="12.37" dx="0.2" dy="1.14" layer="1" rot="R90"/>
<smd name="36" x="4.62" y="12.37" dx="0.2" dy="1.14" layer="1" rot="R90"/>
<smd name="33" x="1.98" y="12.77" dx="0.2" dy="1.14" layer="1" rot="R90"/>
<smd name="34" x="4.62" y="12.77" dx="0.2" dy="1.14" layer="1" rot="R90"/>
<smd name="31" x="1.98" y="13.17" dx="0.2" dy="1.14" layer="1" rot="R90"/>
<smd name="32" x="4.62" y="13.17" dx="0.2" dy="1.14" layer="1" rot="R90"/>
<smd name="29" x="1.98" y="13.57" dx="0.2" dy="1.14" layer="1" rot="R90"/>
<smd name="30" x="4.62" y="13.57" dx="0.2" dy="1.14" layer="1" rot="R90"/>
<smd name="27" x="1.98" y="13.97" dx="0.2" dy="1.14" layer="1" rot="R90"/>
<smd name="28" x="4.62" y="13.97" dx="0.2" dy="1.14" layer="1" rot="R90"/>
<smd name="25" x="1.98" y="14.37" dx="0.2" dy="1.14" layer="1" rot="R90"/>
<smd name="26" x="4.62" y="14.37" dx="0.2" dy="1.14" layer="1" rot="R90"/>
<smd name="23" x="1.98" y="14.77" dx="0.2" dy="1.14" layer="1" rot="R90"/>
<smd name="24" x="4.62" y="14.77" dx="0.2" dy="1.14" layer="1" rot="R90"/>
<smd name="21" x="1.98" y="15.17" dx="0.2" dy="1.14" layer="1" rot="R90"/>
<smd name="22" x="4.62" y="15.17" dx="0.2" dy="1.14" layer="1" rot="R90"/>
<smd name="19" x="1.98" y="15.57" dx="0.2" dy="1.14" layer="1" rot="R90"/>
<smd name="20" x="4.62" y="15.57" dx="0.2" dy="1.14" layer="1" rot="R90"/>
<smd name="17" x="1.98" y="15.97" dx="0.2" dy="1.14" layer="1" rot="R90"/>
<smd name="18" x="4.62" y="15.97" dx="0.2" dy="1.14" layer="1" rot="R90"/>
<smd name="15" x="1.98" y="16.37" dx="0.2" dy="1.14" layer="1" rot="R90"/>
<smd name="16" x="4.62" y="16.37" dx="0.2" dy="1.14" layer="1" rot="R90"/>
<smd name="13" x="1.98" y="16.77" dx="0.2" dy="1.14" layer="1" rot="R90"/>
<smd name="14" x="4.62" y="16.77" dx="0.2" dy="1.14" layer="1" rot="R90"/>
<smd name="11" x="1.98" y="17.17" dx="0.2" dy="1.14" layer="1" rot="R90"/>
<smd name="12" x="4.62" y="17.17" dx="0.2" dy="1.14" layer="1" rot="R90"/>
<smd name="9" x="1.98" y="17.57" dx="0.2" dy="1.14" layer="1" rot="R90"/>
<smd name="10" x="4.62" y="17.57" dx="0.2" dy="1.14" layer="1" rot="R90"/>
<smd name="7" x="1.98" y="17.97" dx="0.2" dy="1.14" layer="1" rot="R90"/>
<smd name="8" x="4.62" y="17.97" dx="0.2" dy="1.14" layer="1" rot="R90"/>
<smd name="5" x="1.98" y="18.37" dx="0.2" dy="1.14" layer="1" rot="R90"/>
<smd name="6" x="4.62" y="18.37" dx="0.2" dy="1.14" layer="1" rot="R90"/>
<smd name="3" x="1.98" y="18.77" dx="0.2" dy="1.14" layer="1" rot="R90"/>
<smd name="4" x="4.62" y="18.77" dx="0.2" dy="1.14" layer="1" rot="R90"/>
<smd name="1" x="1.98" y="19.17" dx="0.2" dy="1.14" layer="1" rot="R90"/>
<smd name="2" x="4.62" y="19.17" dx="0.2" dy="1.14" layer="1" rot="R90"/>
<circle x="2.3" y="19.67" radius="0.1" width="0.3048" layer="21"/>
<wire x1="1.86" y1="3.97" x2="1.86" y2="20.77" width="0.2032" layer="21"/>
<wire x1="1.86" y1="20.77" x2="4.74" y2="20.77" width="0.2032" layer="21"/>
<wire x1="4.74" y1="20.77" x2="4.74" y2="3.97" width="0.2032" layer="21"/>
<wire x1="4.74" y1="3.97" x2="1.86" y2="3.97" width="0.2032" layer="21"/>
<wire x1="0" y1="35.5" x2="2" y2="35.5" width="0.2032" layer="21"/>
<wire x1="23" y1="35.5" x2="25" y2="35.5" width="0.2032" layer="21"/>
<wire x1="25" y1="35.5" x2="25" y2="33.5" width="0.2032" layer="21"/>
<wire x1="25" y1="2" x2="25" y2="0" width="0.2032" layer="21"/>
<wire x1="25" y1="0" x2="23" y2="0" width="0.2032" layer="21"/>
<wire x1="2" y1="0" x2="0" y2="0" width="0.2032" layer="21"/>
<wire x1="0" y1="0" x2="0" y2="2" width="0.2032" layer="21"/>
<wire x1="0" y1="33.5" x2="0" y2="35.5" width="0.2032" layer="21"/>
<rectangle x1="0" y1="22.39" x2="5.78" y2="35.5" layer="39" rot="R180"/>
<rectangle x1="0" y1="22.39" x2="5.78" y2="35.5" layer="40" rot="R180"/>
<text x="0.616" y="34.992" size="0.8128" layer="25" font="vector" ratio="15" rot="R270">&gt;NAME</text>
<hole x="23.53" y="30.67" drill="2"/>
<hole x="2.93" y="1.98" drill="2"/>
</package>
</packages>
</library>
</libraries>
<attributes>
</attributes>
<variantdefs>
</variantdefs>
<classes>
<class number="0" name="default" width="0" drill="0">
</class>
</classes>
<designrules name="pcbcart *">
<description language="en">&lt;b&gt;EAGLE Design Rules&lt;/b&gt;
&lt;p&gt;
PCB Cart Design Rules</description>
<param name="layerSetup" value="(1*16)"/>
<param name="mtCopper" value="0.035mm 0.035mm 0.035mm 0.035mm 0.035mm 0.035mm 0.035mm 0.035mm 0.035mm 0.035mm 0.035mm 0.035mm 0.035mm 0.035mm 0.035mm 0.035mm"/>
<param name="mtIsolate" value="1.5mm 0.15mm 0.2mm 0.15mm 0.2mm 0.15mm 0.2mm 0.15mm 0.2mm 0.15mm 0.2mm 0.15mm 0.2mm 0.15mm 0.2mm"/>
<param name="mdWireWire" value="0.2mm"/>
<param name="mdWirePad" value="0.2mm"/>
<param name="mdWireVia" value="0.2mm"/>
<param name="mdPadPad" value="5mil"/>
<param name="mdPadVia" value="0.2mm"/>
<param name="mdViaVia" value="0.2mm"/>
<param name="mdSmdPad" value="2mil"/>
<param name="mdSmdVia" value="2mil"/>
<param name="mdSmdSmd" value="2mil"/>
<param name="mdViaViaSameLayer" value="8mil"/>
<param name="mnLayersViaInSmd" value="2"/>
<param name="mdCopperDimension" value="10mil"/>
<param name="mdDrill" value="0.2mm"/>
<param name="mdSmdStop" value="0mil"/>
<param name="msWidth" value="0.2mm"/>
<param name="msDrill" value="12mil"/>
<param name="msMicroVia" value="9.99mm"/>
<param name="msBlindViaRatio" value="0.5"/>
<param name="rvPadTop" value="0.25"/>
<param name="rvPadInner" value="0.25"/>
<param name="rvPadBottom" value="0.25"/>
<param name="rvViaOuter" value="0.25"/>
<param name="rvViaInner" value="0.25"/>
<param name="rvMicroViaOuter" value="0.25"/>
<param name="rvMicroViaInner" value="0.25"/>
<param name="rlMinPadTop" value="0.2mm"/>
<param name="rlMaxPadTop" value="20mil"/>
<param name="rlMinPadInner" value="0.2mm"/>
<param name="rlMaxPadInner" value="20mil"/>
<param name="rlMinPadBottom" value="0.2mm"/>
<param name="rlMaxPadBottom" value="20mil"/>
<param name="rlMinViaOuter" value="0.2mm"/>
<param name="rlMaxViaOuter" value="20mil"/>
<param name="rlMinViaInner" value="0.2mm"/>
<param name="rlMaxViaInner" value="20mil"/>
<param name="rlMinMicroViaOuter" value="4mil"/>
<param name="rlMaxMicroViaOuter" value="20mil"/>
<param name="rlMinMicroViaInner" value="4mil"/>
<param name="rlMaxMicroViaInner" value="20mil"/>
<param name="psTop" value="-1"/>
<param name="psBottom" value="-1"/>
<param name="psFirst" value="-1"/>
<param name="psElongationLong" value="100"/>
<param name="psElongationOffset" value="100"/>
<param name="mvStopFrame" value="1"/>
<param name="mvCreamFrame" value="1"/>
<param name="mlMinStopFrame" value="1mil"/>
<param name="mlMaxStopFrame" value="2mil"/>
<param name="mlMinCreamFrame" value="0mil"/>
<param name="mlMaxCreamFrame" value="2mil"/>
<param name="mlViaStopLimit" value="14mil"/>
<param name="srRoundness" value="0"/>
<param name="srMinRoundness" value="0mil"/>
<param name="srMaxRoundness" value="0mil"/>
<param name="slThermalIsolate" value="10mil"/>
<param name="slThermalsForVias" value="0"/>
<param name="dpMaxLengthDifference" value="10mm"/>
<param name="dpGapFactor" value="2.5"/>
<param name="checkGrid" value="0"/>
<param name="checkAngle" value="0"/>
<param name="checkFont" value="1"/>
<param name="checkRestrict" value="1"/>
<param name="useDiameter" value="13"/>
<param name="maxErrors" value="50"/>
</designrules>
<autorouter>
<pass name="Default">
<param name="RoutingGrid" value="50mil"/>
<param name="AutoGrid" value="1"/>
<param name="Efforts" value="0"/>
<param name="TopRouterVariant" value="1"/>
<param name="tpViaShape" value="round"/>
<param name="PrefDir.1" value="|"/>
<param name="PrefDir.2" value="0"/>
<param name="PrefDir.3" value="0"/>
<param name="PrefDir.4" value="0"/>
<param name="PrefDir.5" value="0"/>
<param name="PrefDir.6" value="0"/>
<param name="PrefDir.7" value="0"/>
<param name="PrefDir.8" value="0"/>
<param name="PrefDir.9" value="0"/>
<param name="PrefDir.10" value="0"/>
<param name="PrefDir.11" value="0"/>
<param name="PrefDir.12" value="0"/>
<param name="PrefDir.13" value="0"/>
<param name="PrefDir.14" value="0"/>
<param name="PrefDir.15" value="0"/>
<param name="PrefDir.16" value="-"/>
<param name="cfVia" value="8"/>
<param name="cfNonPref" value="5"/>
<param name="cfChangeDir" value="2"/>
<param name="cfOrthStep" value="2"/>
<param name="cfDiagStep" value="3"/>
<param name="cfExtdStep" value="0"/>
<param name="cfBonusStep" value="1"/>
<param name="cfMalusStep" value="1"/>
<param name="cfPadImpact" value="4"/>
<param name="cfSmdImpact" value="4"/>
<param name="cfBusImpact" value="0"/>
<param name="cfHugging" value="3"/>
<param name="cfAvoid" value="4"/>
<param name="cfPolygon" value="10"/>
<param name="cfBase.1" value="0"/>
<param name="cfBase.2" value="1"/>
<param name="cfBase.3" value="1"/>
<param name="cfBase.4" value="1"/>
<param name="cfBase.5" value="1"/>
<param name="cfBase.6" value="1"/>
<param name="cfBase.7" value="1"/>
<param name="cfBase.8" value="1"/>
<param name="cfBase.9" value="1"/>
<param name="cfBase.10" value="1"/>
<param name="cfBase.11" value="1"/>
<param name="cfBase.12" value="1"/>
<param name="cfBase.13" value="1"/>
<param name="cfBase.14" value="1"/>
<param name="cfBase.15" value="1"/>
<param name="cfBase.16" value="0"/>
<param name="mnVias" value="20"/>
<param name="mnSegments" value="9999"/>
<param name="mnExtdSteps" value="9999"/>
<param name="mnRipupLevel" value="10"/>
<param name="mnRipupSteps" value="100"/>
<param name="mnRipupTotal" value="100"/>
</pass>
<pass name="Follow-me" refer="Default" active="yes">
</pass>
<pass name="Busses" refer="Default" active="yes">
<param name="cfNonPref" value="4"/>
<param name="cfBusImpact" value="4"/>
<param name="cfHugging" value="0"/>
<param name="mnVias" value="0"/>
</pass>
<pass name="Route" refer="Default" active="yes">
</pass>
<pass name="Optimize1" refer="Default" active="yes">
<param name="cfVia" value="99"/>
<param name="cfExtdStep" value="10"/>
<param name="cfHugging" value="1"/>
<param name="mnExtdSteps" value="1"/>
<param name="mnRipupLevel" value="0"/>
</pass>
<pass name="Optimize2" refer="Optimize1" active="yes">
<param name="cfNonPref" value="0"/>
<param name="cfChangeDir" value="6"/>
<param name="cfExtdStep" value="0"/>
<param name="cfBonusStep" value="2"/>
<param name="cfMalusStep" value="2"/>
<param name="cfPadImpact" value="2"/>
<param name="cfSmdImpact" value="2"/>
<param name="cfHugging" value="0"/>
</pass>
<pass name="Optimize3" refer="Optimize2" active="yes">
<param name="cfChangeDir" value="8"/>
<param name="cfPadImpact" value="0"/>
<param name="cfSmdImpact" value="0"/>
</pass>
<pass name="Optimize4" refer="Optimize3" active="yes">
<param name="cfChangeDir" value="25"/>
</pass>
</autorouter>
<elements>
<element name="LOGO2" library="SparkFun-Aesthetics" package="OSHW-LOGO-S" value="OSHW-LOGOS" x="43.50209375" y="25.298025" rot="R90"/>
<element name="U2" library="Edison" package="EDISON_DAUGHTER" value="EDISON_CONNECTOR_FULLMOUNTING_HOLES" x="41.47009375" y="3.200025" rot="R90"/>
<element name="U3" library="Edison" package="DF40C-70DP-0.4(51)" value="EDISON_CONNECTOR_FULLHEADER" x="29.10029375" y="6.500025" rot="R180"/>
<element name="LOGO1" library="SparkFun-Aesthetics" package="OSHW-LOGO-S" value="OSHW-LOGOS" x="43.50209375" y="25.298025" rot="MR270"/>
<element name="FID1" library="SparkFun-Aesthetics" package="FIDUCIAL-1X2" value="FIDUCIAL1X2" x="40.20009375" y="29.870025" rot="MR270"/>
<element name="FID2" library="SparkFun-Aesthetics" package="FIDUCIAL-1X2" value="FIDUCIAL1X2" x="2.10009375" y="5.740025" rot="MR270"/>
<element name="FID3" library="SparkFun-Aesthetics" package="FIDUCIAL-1X2" value="FIDUCIAL1X2" x="40.20009375" y="29.870025" rot="R90"/>
<element name="FID4" library="SparkFun-Aesthetics" package="FIDUCIAL-1X2" value="FIDUCIAL1X2" x="2.10009375" y="5.740025" rot="R90"/>
</elements>
<signals>
<signal name="GND">
<polygon width="0.0762" layer="1" spacing="0.254" orphans="yes" rank="6">
<vertex x="2.60809375" y="0.660025"/>
<vertex x="43.50209375" y="0.660025" curve="90"/>
<vertex x="45.28009375" y="2.438025"/>
<vertex x="45.28009375" y="29.362025" curve="90"/>
<vertex x="43.50209375" y="31.140025"/>
<vertex x="2.60809375" y="31.140025" curve="90"/>
<vertex x="0.83009375" y="29.362025"/>
<vertex x="0.83009375" y="2.438025" curve="90"/>
</polygon>
<polygon width="0.0762" layer="16" spacing="0.254" rank="6">
<vertex x="43.55209375" y="0.660025" curve="90"/>
<vertex x="45.28009375" y="2.388025"/>
<vertex x="45.28009375" y="29.362025" curve="90"/>
<vertex x="43.50209375" y="31.140025"/>
<vertex x="2.60809375" y="31.140025" curve="90"/>
<vertex x="0.83009375" y="29.362025"/>
<vertex x="0.83009375" y="2.438025" curve="90"/>
<vertex x="2.60809375" y="0.660025"/>
</polygon>
<contactref element="U2" pad="15"/>
<contactref element="U2" pad="1"/>
<contactref element="U2" pad="5"/>
<contactref element="U2" pad="9"/>
<contactref element="U2" pad="11"/>
<contactref element="U2" pad="13"/>
<contactref element="U3" pad="15"/>
<contactref element="U3" pad="1"/>
<contactref element="U3" pad="5"/>
<contactref element="U3" pad="9"/>
<contactref element="U3" pad="11"/>
<contactref element="U3" pad="13"/>
<wire x1="22.30009375" y1="5.180025" x2="22.30029375" y2="5.180025" width="0" layer="19" extent="1-16"/>
</signal>
<signal name="VSYS">
<contactref element="U2" pad="6"/>
<contactref element="U2" pad="2"/>
<contactref element="U2" pad="4"/>
<contactref element="U3" pad="6"/>
<contactref element="U3" pad="2"/>
<contactref element="U3" pad="4"/>
<contactref element="U2" pad="14"/>
<contactref element="U3" pad="14"/>
<wire x1="23.10029375" y1="7.820025" x2="23.10009375" y2="7.820025" width="0" layer="19" extent="1-16"/>
<wire x1="22.70009375" y1="7.820025" x2="23.10009375" y2="7.820025" width="0" layer="19" extent="1-1"/>
<wire x1="22.70029375" y1="7.820025" x2="22.70009375" y2="7.820025" width="0" layer="19" extent="1-16"/>
<wire x1="22.30009375" y1="7.820025" x2="22.70009375" y2="7.820025" width="0" layer="19" extent="1-1"/>
<wire x1="22.30029375" y1="7.820025" x2="22.30009375" y2="7.820025" width="0" layer="19" extent="1-16"/>
<wire x1="24.70009375" y1="7.820025" x2="23.10009375" y2="7.820025" width="0" layer="19" extent="1-1"/>
<wire x1="24.70029375" y1="7.820025" x2="24.70009375" y2="7.820025" width="0" layer="19" extent="1-16"/>
</signal>
<signal name="3.3V">
<contactref element="U2" pad="8"/>
<contactref element="U2" pad="10"/>
<contactref element="U3" pad="8"/>
<contactref element="U3" pad="10"/>
<wire x1="23.50029375" y1="7.820025" x2="23.50009375" y2="7.820025" width="0" layer="19" extent="1-16"/>
<wire x1="23.90009375" y1="7.820025" x2="23.50009375" y2="7.820025" width="0" layer="19" extent="1-1"/>
<wire x1="23.90029375" y1="7.820025" x2="23.90009375" y2="7.820025" width="0" layer="19" extent="1-16"/>
</signal>
<signal name="GP183_PWM3">
<contactref element="U2" pad="39"/>
<contactref element="U3" pad="39"/>
<wire x1="29.90029375" y1="5.180025" x2="29.90009375" y2="5.180025" width="0" layer="19" extent="1-16"/>
</signal>
<signal name="GP182_PWM2">
<contactref element="U2" pad="37"/>
<contactref element="U3" pad="37"/>
<wire x1="29.50029375" y1="5.180025" x2="29.50009375" y2="5.180025" width="0" layer="19" extent="1-16"/>
</signal>
<signal name="GP13_PWM1">
<contactref element="U2" pad="33"/>
<contactref element="U3" pad="33"/>
<wire x1="28.70029375" y1="5.180025" x2="28.70009375" y2="5.180025" width="0" layer="19" extent="1-16"/>
</signal>
<signal name="GP12_PWM0">
<contactref element="U2" pad="35"/>
<contactref element="U3" pad="35"/>
<wire x1="29.10029375" y1="5.180025" x2="29.10009375" y2="5.180025" width="0" layer="19" extent="1-16"/>
</signal>
<signal name="GP14">
<contactref element="U2" pad="48"/>
<contactref element="U3" pad="48"/>
<wire x1="31.50029375" y1="7.820025" x2="31.50009375" y2="7.820025" width="0" layer="19" extent="1-16"/>
</signal>
<signal name="GP15">
<contactref element="U2" pad="42"/>
<contactref element="U3" pad="42"/>
<wire x1="30.30029375" y1="7.820025" x2="30.30009375" y2="7.820025" width="0" layer="19" extent="1-16"/>
</signal>
<signal name="GP49">
<contactref element="U2" pad="34"/>
<contactref element="U3" pad="34"/>
<wire x1="28.70029375" y1="7.820025" x2="28.70009375" y2="7.820025" width="0" layer="19" extent="1-16"/>
</signal>
<signal name="GP48">
<contactref element="U2" pad="32"/>
<contactref element="U3" pad="32"/>
<wire x1="28.30029375" y1="7.820025" x2="28.30009375" y2="7.820025" width="0" layer="19" extent="1-16"/>
</signal>
<signal name="GP47">
<contactref element="U2" pad="30"/>
<contactref element="U3" pad="30"/>
<wire x1="27.90029375" y1="7.820025" x2="27.90009375" y2="7.820025" width="0" layer="19" extent="1-16"/>
</signal>
<signal name="GP46">
<contactref element="U2" pad="28"/>
<contactref element="U3" pad="28"/>
<wire x1="27.50029375" y1="7.820025" x2="27.50009375" y2="7.820025" width="0" layer="19" extent="1-16"/>
</signal>
<signal name="GP45">
<contactref element="U2" pad="26"/>
<contactref element="U3" pad="26"/>
<wire x1="27.10029375" y1="7.820025" x2="27.10009375" y2="7.820025" width="0" layer="19" extent="1-16"/>
</signal>
<signal name="GP165">
<contactref element="U2" pad="25"/>
<contactref element="U3" pad="25"/>
<wire x1="27.10029375" y1="5.180025" x2="27.10009375" y2="5.180025" width="0" layer="19" extent="1-16"/>
</signal>
<signal name="GP44">
<contactref element="U2" pad="24"/>
<contactref element="U3" pad="24"/>
<wire x1="26.70029375" y1="7.820025" x2="26.70009375" y2="7.820025" width="0" layer="19" extent="1-16"/>
</signal>
<signal name="PSW">
<contactref element="U2" pad="21"/>
<contactref element="U3" pad="21"/>
<wire x1="26.30029375" y1="5.180025" x2="26.30009375" y2="5.180025" width="0" layer="19" extent="1-16"/>
</signal>
<signal name="FAULT">
<contactref element="U2" pad="19"/>
<contactref element="U3" pad="19"/>
<wire x1="25.90029375" y1="5.180025" x2="25.90009375" y2="5.180025" width="0" layer="19" extent="1-16"/>
</signal>
<signal name="USB_VBUS">
<contactref element="U2" pad="20"/>
<contactref element="U3" pad="20"/>
<wire x1="25.90029375" y1="7.820025" x2="25.90009375" y2="7.820025" width="0" layer="19" extent="1-16"/>
</signal>
<signal name="USB_DN">
<contactref element="U2" pad="18"/>
<contactref element="U3" pad="18"/>
<wire x1="25.50029375" y1="7.820025" x2="25.50009375" y2="7.820025" width="0" layer="19" extent="1-16"/>
</signal>
<signal name="USB_DP">
<contactref element="U2" pad="16"/>
<contactref element="U3" pad="16"/>
<wire x1="25.10029375" y1="7.820025" x2="25.10009375" y2="7.820025" width="0" layer="19" extent="1-16"/>
</signal>
<signal name="USB_ID">
<contactref element="U2" pad="3"/>
<contactref element="U3" pad="3"/>
<wire x1="22.70029375" y1="5.180025" x2="22.70009375" y2="5.180025" width="0" layer="19" extent="1-16"/>
</signal>
<signal name="GP114_SPI_2_RXD">
<contactref element="U2" pad="59"/>
<contactref element="U3" pad="59"/>
<wire x1="33.90009375" y1="5.180025" x2="33.90009375" y2="3.42490625" width="0.2" layer="1"/>
<via x="34.55" y="2.425" extent="1-16" drill="0.3048" diameter="0.3048" shape="octagon"/>
<wire x1="34.55" y1="2.425" x2="34.55" y2="2.775" width="0.2" layer="1"/>
<wire x1="34.55" y1="2.775" x2="33.90009375" y2="3.42490625" width="0.2" layer="1"/>
<wire x1="33.90009375" y1="5.180025" x2="33.90029375" y2="5.180025" width="0" layer="19" extent="1-16"/>
</signal>
<signal name="GP115_SPI_2_TXD">
<contactref element="U2" pad="57"/>
<contactref element="U3" pad="57"/>
<wire x1="33.50009375" y1="5.180025" x2="33.50009375" y2="3.24990625" width="0.2" layer="1"/>
<via x="34.55" y="1.475" extent="1-16" drill="0.3048" diameter="0.3048" shape="octagon"/>
<wire x1="33.50009375" y1="3.24990625" x2="33.875" y2="2.875" width="0.2" layer="1"/>
<wire x1="33.875" y1="2.875" x2="33.875" y2="2.15" width="0.2" layer="1"/>
<wire x1="33.875" y1="2.15" x2="34.55" y2="1.475" width="0.2" layer="1"/>
<wire x1="33.50009375" y1="5.180025" x2="33.50029375" y2="5.180025" width="0" layer="19" extent="1-16"/>
</signal>
<signal name="GP109_SPI_2_CLK">
<contactref element="U2" pad="55"/>
<contactref element="U3" pad="55"/>
<wire x1="33.10009375" y1="5.180025" x2="33.10009375" y2="2.77509375" width="0.2" layer="1"/>
<via x="33.05" y="2.725" extent="1-16" drill="0.3048" diameter="0.3048" shape="octagon"/>
<wire x1="33.10009375" y1="2.77509375" x2="33.05" y2="2.725" width="0.2" layer="1"/>
<wire x1="33.10009375" y1="5.180025" x2="33.10029375" y2="5.180025" width="0" layer="19" extent="1-16"/>
</signal>
<signal name="GP110_SPI_2_FS0">
<contactref element="U2" pad="53"/>
<contactref element="U3" pad="53"/>
<wire x1="32.70009375" y1="5.180025" x2="32.70009375" y2="3.30009375" width="0.2" layer="1"/>
<via x="33.05" y="1.775" extent="1-16" drill="0.3048" diameter="0.3048" shape="octagon"/>
<wire x1="32.70009375" y1="3.30009375" x2="32.375" y2="3" width="0.2" layer="1"/>
<wire x1="32.375" y1="3" x2="32.375" y2="2.425" width="0.2" layer="1"/>
<wire x1="32.375" y1="2.425" x2="33.05" y2="1.775" width="0.2" layer="1"/>
<wire x1="32.70009375" y1="5.180025" x2="32.70029375" y2="5.180025" width="0" layer="19" extent="1-16"/>
</signal>
<signal name="GP111_SPI_2_FS1">
<contactref element="U2" pad="51"/>
<contactref element="U3" pad="51"/>
<wire x1="32.30009375" y1="5.180025" x2="32.30009375" y2="4.00009375" width="0.2" layer="1"/>
<via x="32.025" y="3.6" extent="1-16" drill="0.3048" diameter="0.3048" shape="octagon"/>
<wire x1="32.025" y1="3.6" x2="32.05" y2="3.75" width="0.2" layer="1"/>
<wire x1="32.05" y1="3.75" x2="32.30009375" y2="4.00009375" width="0.2" layer="1"/>
<wire x1="32.30009375" y1="5.180025" x2="32.30029375" y2="5.180025" width="0" layer="19" extent="1-16"/>
</signal>
<signal name="GP135_UART_2_TX">
<contactref element="U2" pad="27"/>
<contactref element="U3" pad="27"/>
<wire x1="27.50029375" y1="5.180025" x2="27.50009375" y2="5.180025" width="0" layer="19" extent="1-16"/>
</signal>
<signal name="GP134_UART_2_RX">
<contactref element="U2" pad="22"/>
<contactref element="U3" pad="22"/>
<wire x1="26.30029375" y1="7.820025" x2="26.30009375" y2="7.820025" width="0" layer="19" extent="1-16"/>
</signal>
<signal name="GP43_I2S_2_TXD">
<contactref element="U2" pad="56"/>
<contactref element="U3" pad="56"/>
<wire x1="33.10029375" y1="7.820025" x2="33.10009375" y2="7.820025" width="0" layer="19" extent="1-16"/>
</signal>
<signal name="GP41_I2S_2_FS">
<contactref element="U2" pad="54"/>
<contactref element="U3" pad="54"/>
<wire x1="32.70029375" y1="7.820025" x2="32.70009375" y2="7.820025" width="0" layer="19" extent="1-16"/>
</signal>
<signal name="GP40_I2S_2_CLK">
<contactref element="U2" pad="52"/>
<contactref element="U3" pad="52"/>
<wire x1="32.30029375" y1="7.820025" x2="32.30009375" y2="7.820025" width="0" layer="19" extent="1-16"/>
</signal>
<signal name="GP42_I2S_2_RXD">
<contactref element="U2" pad="50"/>
<contactref element="U3" pad="50"/>
<wire x1="31.90029375" y1="7.820025" x2="31.90009375" y2="7.820025" width="0" layer="19" extent="1-16"/>
</signal>
<signal name="GP28_I2C_6_SDA">
<contactref element="U2" pad="47"/>
<contactref element="U3" pad="47"/>
<wire x1="31.50029375" y1="5.180025" x2="31.50009375" y2="5.180025" width="0" layer="19" extent="1-16"/>
</signal>
<signal name="GP27_I2C_6_SCL">
<contactref element="U2" pad="45"/>
<contactref element="U3" pad="45"/>
<wire x1="31.10029375" y1="5.180025" x2="31.10009375" y2="5.180025" width="0" layer="19" extent="1-16"/>
</signal>
<signal name="GP20_I2C_1_SDA">
<contactref element="U2" pad="43"/>
<contactref element="U3" pad="43"/>
<wire x1="30.70029375" y1="5.180025" x2="30.70009375" y2="5.180025" width="0" layer="19" extent="1-16"/>
</signal>
<signal name="GP19_I2C_1_SCL">
<contactref element="U2" pad="41"/>
<contactref element="U3" pad="41"/>
<wire x1="30.30029375" y1="5.180025" x2="30.30009375" y2="5.180025" width="0" layer="19" extent="1-16"/>
</signal>
<signal name="GP131_UART_1_TX">
<contactref element="U2" pad="46"/>
<contactref element="U3" pad="46"/>
<wire x1="31.10029375" y1="7.820025" x2="31.10009375" y2="7.820025" width="0" layer="19" extent="1-16"/>
</signal>
<signal name="GP130_UART_1_RX">
<contactref element="U2" pad="61"/>
<contactref element="U3" pad="61"/>
<wire x1="34.30009375" y1="5.180025" x2="34.30009375" y2="3.62490625" width="0.2" layer="1"/>
<via x="36" y="1.775" extent="1-16" drill="0.3048" diameter="0.3048" shape="octagon"/>
<wire x1="36" y1="1.775" x2="35.9" y2="1.8" width="0.2" layer="1"/>
<wire x1="35.9" y1="1.8" x2="35.325" y2="2.375" width="0.2" layer="1"/>
<wire x1="35.325" y1="2.375" x2="35.325" y2="2.575" width="0.2" layer="1"/>
<wire x1="35.325" y1="2.575" x2="34.30009375" y2="3.62490625" width="0.2" layer="1"/>
<wire x1="34.30009375" y1="5.180025" x2="34.30029375" y2="5.180025" width="0" layer="19" extent="1-16"/>
</signal>
<signal name="GP129_UART_1_RTS">
<contactref element="U2" pad="63"/>
<contactref element="U3" pad="63"/>
<wire x1="34.70009375" y1="5.180025" x2="34.70009375" y2="3.82490625" width="0.2" layer="1"/>
<via x="36" y="2.725" extent="1-16" drill="0.3048" diameter="0.3048" shape="octagon"/>
<wire x1="34.70009375" y1="3.82490625" x2="35.8" y2="2.725" width="0.2" layer="1"/>
<wire x1="36" y1="2.725" x2="35.8" y2="2.725" width="0.2" layer="1"/>
<wire x1="34.70009375" y1="5.180025" x2="34.70029375" y2="5.180025" width="0" layer="19" extent="1-16"/>
</signal>
<signal name="GP128_UART_1_CTS">
<contactref element="U2" pad="65"/>
<contactref element="U3" pad="65"/>
<wire x1="35.10009375" y1="5.180025" x2="35.10009375" y2="3.99990625" width="0.2" layer="1"/>
<via x="37.35" y="1.775" extent="1-16" drill="0.3048" diameter="0.3048" shape="octagon"/>
<wire x1="37.35" y1="1.775" x2="37.125" y2="1.775" width="0.2" layer="1"/>
<wire x1="37.125" y1="1.775" x2="36.675" y2="2.225" width="0.2" layer="1"/>
<wire x1="36.675" y1="2.225" x2="36.675" y2="2.975" width="0.2" layer="1"/>
<wire x1="36.675" y1="2.975" x2="36.25" y2="3.4" width="0.2" layer="1"/>
<wire x1="36.25" y1="3.4" x2="35.7" y2="3.4" width="0.2" layer="1"/>
<wire x1="35.7" y1="3.4" x2="35.10009375" y2="3.99990625" width="0.2" layer="1"/>
<wire x1="35.10009375" y1="5.180025" x2="35.10029375" y2="5.180025" width="0" layer="19" extent="1-16"/>
</signal>
<signal name="GP84_SD_CLK_FB">
<contactref element="U2" pad="44"/>
<contactref element="U3" pad="44"/>
<wire x1="30.70029375" y1="7.820025" x2="30.70009375" y2="7.820025" width="0" layer="19" extent="1-16"/>
</signal>
<signal name="GP78_SD_0_CLK">
<contactref element="U2" pad="58"/>
<contactref element="U3" pad="58"/>
<wire x1="33.50029375" y1="7.820025" x2="33.50009375" y2="7.820025" width="0" layer="19" extent="1-16"/>
</signal>
<signal name="GP77_SD_0_CD#">
<contactref element="U2" pad="60"/>
<contactref element="U3" pad="60"/>
<wire x1="33.90029375" y1="7.820025" x2="33.90009375" y2="7.820025" width="0" layer="19" extent="1-16"/>
</signal>
<signal name="GP79_SD_0_CMD">
<contactref element="U2" pad="62"/>
<contactref element="U3" pad="62"/>
<wire x1="34.30029375" y1="7.820025" x2="34.30009375" y2="7.820025" width="0" layer="19" extent="1-16"/>
</signal>
<signal name="GP80_SD_0_DAT0">
<contactref element="U2" pad="66"/>
<contactref element="U3" pad="66"/>
<wire x1="35.10029375" y1="7.820025" x2="35.10009375" y2="7.820025" width="0" layer="19" extent="1-16"/>
</signal>
<signal name="GP81_SD_0_DAT1">
<contactref element="U2" pad="70"/>
<contactref element="U3" pad="70"/>
<wire x1="35.90029375" y1="7.820025" x2="35.90009375" y2="7.820025" width="0" layer="19" extent="1-16"/>
</signal>
<signal name="GP82_SD_0_DAT2">
<contactref element="U2" pad="64"/>
<contactref element="U3" pad="64"/>
<wire x1="34.70029375" y1="7.820025" x2="34.70009375" y2="7.820025" width="0" layer="19" extent="1-16"/>
</signal>
<signal name="GP83_SD_0_DAT3">
<contactref element="U2" pad="68"/>
<contactref element="U3" pad="68"/>
<wire x1="35.50029375" y1="7.820025" x2="35.50009375" y2="7.820025" width="0" layer="19" extent="1-16"/>
</signal>
<signal name="MSIC_SLP_CLK">
<contactref element="U2" pad="7"/>
<contactref element="U3" pad="7"/>
<wire x1="23.50029375" y1="5.180025" x2="23.50009375" y2="5.180025" width="0" layer="19" extent="1-16"/>
</signal>
<signal name="RESET_OUT#">
<contactref element="U2" pad="36"/>
<contactref element="U3" pad="36"/>
<wire x1="29.10029375" y1="7.820025" x2="29.10009375" y2="7.820025" width="0" layer="19" extent="1-16"/>
</signal>
<signal name="PWRBTN#">
<contactref element="U2" pad="17"/>
<contactref element="U3" pad="17"/>
<wire x1="25.50029375" y1="5.180025" x2="25.50009375" y2="5.180025" width="0" layer="19" extent="1-16"/>
</signal>
<signal name="V_BAT_BKUP">
<contactref element="U2" pad="23"/>
<contactref element="U3" pad="23"/>
<wire x1="26.70029375" y1="5.180025" x2="26.70009375" y2="5.180025" width="0" layer="19" extent="1-16"/>
</signal>
<signal name="1.8V">
<contactref element="U2" pad="12"/>
<contactref element="U3" pad="12"/>
<wire x1="24.30029375" y1="7.820025" x2="24.30009375" y2="7.820025" width="0" layer="19" extent="1-16"/>
</signal>
<signal name="FW_RCVR">
<contactref element="U2" pad="69"/>
<contactref element="U3" pad="69"/>
<wire x1="35.90009375" y1="5.180025" x2="35.90009375" y2="4.39990625" width="0.2" layer="1"/>
<wire x1="35.90009375" y1="4.39990625" x2="36.1" y2="4.2" width="0.2" layer="1"/>
<via x="37.025" y="4.225" extent="1-16" drill="0.3048" diameter="0.3048" shape="octagon"/>
<wire x1="36.1" y1="4.2" x2="36.45" y2="4.2" width="0.2" layer="1"/>
<wire x1="36.45" y1="4.2" x2="37.025" y2="4.225" width="0.2" layer="1"/>
<wire x1="35.90009375" y1="5.180025" x2="35.90029375" y2="5.180025" width="0" layer="19" extent="1-16"/>
</signal>
<signal name="RCVR_MODE">
<contactref element="U2" pad="31"/>
<contactref element="U3" pad="31"/>
<wire x1="28.30029375" y1="5.180025" x2="28.30009375" y2="5.180025" width="0" layer="19" extent="1-16"/>
</signal>
<signal name="OSC_CLK_OUT">
<contactref element="U2" pad="67"/>
<contactref element="U3" pad="67"/>
<wire x1="35.50009375" y1="5.180025" x2="35.50009375" y2="4.19990625" width="0.2" layer="1"/>
<via x="37.35" y="2.725" extent="1-16" drill="0.3048" diameter="0.3048" shape="octagon"/>
<wire x1="37.35" y1="2.725" x2="37.35" y2="2.9" width="0.2" layer="1"/>
<wire x1="37.35" y1="2.9" x2="36.45" y2="3.8" width="0.2" layer="1"/>
<wire x1="36.45" y1="3.8" x2="35.9" y2="3.8" width="0.2" layer="1"/>
<wire x1="35.9" y1="3.8" x2="35.50009375" y2="4.19990625" width="0.2" layer="1"/>
<wire x1="35.50009375" y1="5.180025" x2="35.50029375" y2="5.180025" width="0" layer="19" extent="1-16"/>
</signal>
</signals>
<errors>
<approved hash="6,1,6c4e1b8819f86e3e"/>
<approved hash="6,16,6c4e1b8819f86e3e"/>
<approved hash="3,1,247c24ed24ec247d"/>
<approved hash="3,1,1118118911881119"/>
<approved hash="3,1,587e28ef28ee587f"/>
<approved hash="3,1,6d1a1d8b1d8a6d1b"/>
<approved hash="3,1,4c785ce95ce84c79"/>
<approved hash="3,1,791c698d698c791d"/>
<approved hash="3,1,407a40eb40ea407b"/>
<approved hash="3,1,751e758f758e751f"/>
<approved hash="3,1,747474e574e47475"/>
<approved hash="3,1,4110418141804111"/>
<approved hash="3,1,687678e778e66877"/>
<approved hash="3,1,5d124d834d825d13"/>
<approved hash="3,1,9c706ce16ce19c70"/>
<approved hash="3,1,a91459855985a914"/>
<approved hash="3,1,907190e090e39072"/>
<approved hash="3,1,a515a584a587a516"/>
<approved hash="3,1,847384e284dd844c"/>
<approved hash="3,1,b117b186b1b9b128"/>
<approved hash="3,1,b84d88dc88dfb84e"/>
<approved hash="3,1,8d29bdb8bdbb8d2a"/>
<approved hash="3,1,ac4fbcdebcd9ac48"/>
<approved hash="3,1,992b89ba89bd992c"/>
<approved hash="3,1,a049a0d8a0dba04a"/>
<approved hash="3,1,952d95bc95bf952e"/>
<approved hash="3,1,d44bd4dad4d5d444"/>
<approved hash="3,1,e12fe1bee1b1e120"/>
<approved hash="3,1,c845d8d4d8d7c846"/>
<approved hash="3,1,fd21edb0edb3fd22"/>
<approved hash="3,1,fc47ccd6ccd1fc40"/>
<approved hash="3,1,c923f9b2f9b5c924"/>
<approved hash="3,1,f041f0d0f0d3f042"/>
<approved hash="3,1,c525c5b4c5b7c526"/>
<approved hash="3,1,e443e4d2e4cde45c"/>
<approved hash="3,1,d127d1b6d1a9d138"/>
<approved hash="3,1,185de8cce8cf185e"/>
<approved hash="3,1,2d39dda8ddab2d3a"/>
<approved hash="3,1,0c5f1cce1cc90c58"/>
<approved hash="3,1,393b29aa29ad393c"/>
<approved hash="3,1,005900c800cb005a"/>
<approved hash="3,1,353d35ac35af353e"/>
<approved hash="3,1,345b34ca34c53454"/>
<approved hash="3,1,013f01ae01a10130"/>
<approved hash="3,1,285538c438c72856"/>
<approved hash="3,1,1d310da00da31d32"/>
<approved hash="3,1,5c572cc62cc15c50"/>
<approved hash="3,1,693319a219a56934"/>
<approved hash="3,1,505150c050c35052"/>
<approved hash="3,1,653565a465a76536"/>
<approved hash="3,1,445344c2443d44ac"/>
<approved hash="3,1,713771a6715971c8"/>
<approved hash="3,1,78ad483c483f78ae"/>
<approved hash="3,1,4dc97d587d5b4dca"/>
<approved hash="3,1,6caf7c3e7c396ca8"/>
<approved hash="3,1,59cb495a495d59cc"/>
<approved hash="3,1,60a96038603b60aa"/>
<approved hash="3,1,55cd555c555f55ce"/>
<approved hash="3,1,94aa943b943a94ab"/>
<approved hash="3,1,a1cea15fa15ea1cf"/>
<approved hash="3,1,88a49835983488a5"/>
<approved hash="3,1,bdc0ad51ad50bdc1"/>
<approved hash="3,1,bca68c378c36bca7"/>
<approved hash="3,1,89c2b953b95289c3"/>
<approved hash="3,1,b0a0b031b030b0a1"/>
<approved hash="3,1,85c48555855485c5"/>
<approved hash="3,1,a4a2a433a432a4a3"/>
<approved hash="3,1,91c69157915691c7"/>
<approved hash="3,1,d8bca82da82cd8bd"/>
<approved hash="3,1,edd89d499d48edd9"/>
<approved hash="3,1,ccbedc2fdc2eccbf"/>
<approved hash="3,1,f9dae94be94af9db"/>
<approved hash="3,16,ccfedc6fdc6eccff"/>
<approved hash="3,16,f99ae90be90af99b"/>
<approved hash="3,16,d8fca86da86cd8fd"/>
<approved hash="3,16,ed989d099d08ed99"/>
<approved hash="3,16,a4e2a473a472a4e3"/>
<approved hash="3,16,9186911791169187"/>
<approved hash="3,16,b0e0b071b070b0e1"/>
<approved hash="3,16,8584851585148585"/>
<approved hash="3,16,bce68c778c76bce7"/>
<approved hash="3,16,8982b913b9128983"/>
<approved hash="3,16,88e49875987488e5"/>
<approved hash="3,16,bd80ad11ad10bd81"/>
<approved hash="3,16,94ea947b947a94eb"/>
<approved hash="3,16,a18ea11fa11ea18f"/>
<approved hash="3,16,60e96078607b60ea"/>
<approved hash="3,16,558d551c551f558e"/>
<approved hash="3,16,6cef7c7e7c796ce8"/>
<approved hash="3,16,598b491a491d598c"/>
<approved hash="3,16,78ed487c487f78ee"/>
<approved hash="3,16,4d897d187d1b4d8a"/>
<approved hash="3,16,44134482447d44ec"/>
<approved hash="3,16,717771e671197188"/>
<approved hash="3,16,5011508050835012"/>
<approved hash="3,16,657565e465e76576"/>
<approved hash="3,16,5c172c862c815c10"/>
<approved hash="3,16,697319e219e56974"/>
<approved hash="3,16,2815388438872816"/>
<approved hash="3,16,1d710de00de31d72"/>
<approved hash="3,16,341b348a34853414"/>
<approved hash="3,16,017f01ee01e10170"/>
<approved hash="3,16,00190088008b001a"/>
<approved hash="3,16,357d35ec35ef357e"/>
<approved hash="3,16,0c1f1c8e1c890c18"/>
<approved hash="3,16,397b29ea29ed397c"/>
<approved hash="3,16,181de88ce88f181e"/>
<approved hash="3,16,2d79dde8ddeb2d7a"/>
<approved hash="3,16,e403e492e48de41c"/>
<approved hash="3,16,d167d1f6d1e9d178"/>
<approved hash="3,16,f001f090f093f002"/>
<approved hash="3,16,c565c5f4c5f7c566"/>
<approved hash="3,16,fc07cc96cc91fc00"/>
<approved hash="3,16,c963f9f2f9f5c964"/>
<approved hash="3,16,c805d894d897c806"/>
<approved hash="3,16,fd61edf0edf3fd62"/>
<approved hash="3,16,d40bd49ad495d404"/>
<approved hash="3,16,e16fe1fee1f1e160"/>
<approved hash="3,16,a009a098a09ba00a"/>
<approved hash="3,16,956d95fc95ff956e"/>
<approved hash="3,16,ac0fbc9ebc99ac08"/>
<approved hash="3,16,996b89fa89fd996c"/>
<approved hash="3,16,b80d889c889fb80e"/>
<approved hash="3,16,8d69bdf8bdfb8d6a"/>
<approved hash="3,16,843384a2849d840c"/>
<approved hash="3,16,b157b1c6b1f9b168"/>
<approved hash="3,16,903190a090a39032"/>
<approved hash="3,16,a555a5c4a5c7a556"/>
<approved hash="3,16,9c306ca16ca19c30"/>
<approved hash="3,16,a95459c559c5a954"/>
<approved hash="3,16,683678a778a66837"/>
<approved hash="3,16,5d524dc34dc25d53"/>
<approved hash="3,16,743474a574a47435"/>
<approved hash="3,16,415041c141c04151"/>
<approved hash="3,16,403a40ab40aa403b"/>
<approved hash="3,16,755e75cf75ce755f"/>
<approved hash="3,16,4c385ca95ca84c39"/>
<approved hash="3,16,795c69cd69cc795d"/>
<approved hash="3,16,583e28af28ae583f"/>
<approved hash="3,16,6d5a1dcb1dca6d5b"/>
<approved hash="3,16,243c24ad24ac243d"/>
<approved hash="3,16,115811c911c81159"/>
<approved hash="3,1,514df375f31d5125"/>
<approved hash="3,16,7d38b386e73489b7"/>
<approved hash="6,1,f5ac596a5efbf23d"/>
<approved hash="6,16,f5ac596a5efbf23d"/>
<approved hash="3,1,1ac9ebc7ebf01afe"/>
<approved hash="3,16,cd15ba5960cd89d9"/>
<approved hash="6,1,e7922d282ebfe405"/>
<approved hash="6,16,e7922d282ebfe405"/>
</errors>
</board>
</drawing>
</eagle>
